…
The `calcLAD()` function requires selecting the columns with the leaf
inclination angle measurements data (in degrees), the type of
calculations to be performed (*‘summary’* or *‘extended’*) and the
grouping column(s).  

By selecting `type='extended'` the function calculate LAD function
(*pdf*) and G-function (*G*) for each group:

``` r
calcLAD(Chianucci,Angle_degree,type='extended',Genus,Species)
```

    ## # A tibble: 12,282 × 5
    ##    Genus  Species  theta    pdf     G
    ##    <chr>  <chr>    <int>  <dbl> <dbl>
    ##  1 Acacia dealbata     1 0.0116 0.688
    ##  2 Acacia dealbata     2 0.012  0.688
    ##  3 Acacia dealbata     3 0.0123 0.688
    ##  4 Acacia dealbata     4 0.0125 0.687
    ##  5 Acacia dealbata     5 0.0126 0.686
    ##  6 Acacia dealbata     6 0.0127 0.685
    ##  7 Acacia dealbata     7 0.0128 0.684
    ##  8 Acacia dealbata     8 0.0128 0.683
    ##  9 Acacia dealbata     9 0.0129 0.682
    ## 10 Acacia dealbata    10 0.0129 0.68 
    ## # ℹ 12,272 more rows

By selecting `type='summary'` the function calculate mean statistics
(mean leaf inclination angle (MTA); standard deviation (SD), frequency
(NR), Beta parameters (mu,nu) and distribution type):

``` r
calcLAD(Chianucci,Angle_degree,type='summary',Genus,Species)
```

    ## Joining with `by = join_by(Genus, Species)`
    ## Joining with `by = join_by(Genus, Species)`

    ## # A tibble: 138 × 8
    ##    Genus  Species          MTA    SD     N    mu    nu distribution
    ##    <chr>  <chr>          <dbl> <dbl> <int> <dbl> <dbl> <chr>       
    ##  1 Acacia dealbata        40.9  24.5   283  1.27  1.06 uniform     
    ##  2 Acer   burgerianum     63.7  13.7   115  2.33  5.64 erectophile 
    ##  3 Acer   campestre       50.1  15.0    75  3.51  4.4  plagiophile 
    ##  4 Acer   griseum         33.6  20.9    80  2.09  1.24 planophile  
    ##  5 Acer   miyabei         44.9  15.5    80  3.72  3.71 plagiophile 
    ##  6 Acer   monspessulanum  20.1  14.8   105  4.21  1.21 planophile  
    ##  7 Acer   negundo         59.4  17.5   114  1.68  3.26 erectophile 
    ##  8 Acer   platanoides     26.8  16.7  1254  3.56  1.51 planophile  
    ##  9 Acer   pseudoplatanus  33.8  17.1   102  3.44  2.07 planophile  
    ## 10 Acer   rubrum          30.3  16.1  1001  3.98  2.03 planophile  
    ## # ℹ 128 more rows
…
